[
    "MD5",
    "HmacMD5",
    "SHA1",
    "HmacSHA1",
    "SHA256",
    "HmacSHA256",
    "SHA224",
    "HmacSHA224",
    "SHA384",
    "HmacSHA384",
    "SHA512",
    "HmacSHA512",
    "SHA3",
    "HmacSHA3",
    "RIPEMD160",
    "HmacRIPEMD160",
    "PBKDF2",
    "EvpKDF"
]
